<?xml version="1.0" encoding="utf-8"?>
<svg xmlns="http://www.w3.org/2000/svg" xmlns:xlink="http://www.w3.org/1999/xlink" version="1.1" id="Layer_1" width="300" height="300">
  <g>
    <path d="M229.239,192.374l33.462-15.655l36.662-17.152h-40.476h-32.44c1.448-7.303,2.19-14.803,2.19-22.417   c0-30.451-11.858-59.078-33.39-80.61c-21.532-21.532-50.16-33.39-80.61-33.39s-59.078,11.858-80.61,33.39   c-21.532,21.532-33.39,50.16-33.39,80.61s11.858,59.078,33.39,80.61c21.532,21.532,50.16,33.39,80.61,33.39   c24.707,0,48.213-7.807,67.703-22.254l1.383,9.914l5.306,38.04l12.146-36.437l7.348-22.045l25.6,12.754l29.055,14.475   l-17.453-27.37L229.239,192.374z"/>
    <linearGradient id="SVGID_1_" gradientUnits="userSpaceOnUse" x1="73.0486" y1="232.9101" x2="195.2234" y2="70.7785">
      <stop style="stop-color:#bf331c" offset="0"/>
      <stop style="stop-color:#d3641c" offset="0.3"/>
      <stop style="stop-color:#f6b91d" offset="0.5"/>
      <stop style="stop-color:#d3641c" offset="0.7"/>
      <stop style="stop-color:#bf331c" offset="1"/>
    </linearGradient>
    <path fill="url(#SVGID_1_)" d="M188.512,125.692l-15.06-71.273c15.087,10.745,27.106,25.515,34.498,42.742L188.512,125.692z    M101.637,222.567l47.375-41.25l-93-16.375l97.75-5.25l-66.25-75l79.875,44.25l-2.692-80.104   c-14.773-8.392-31.854-13.188-50.058-13.188c-56.057,0-101.5,45.443-101.5,101.5c0,56.057,45.443,101.5,101.5,101.5   c20.022,0,38.688-5.8,54.414-15.807l1.086-26.151L101.637,222.567z M215.559,148c0.379-3.565,0.578-7.184,0.578-10.85   c0-8.844-1.134-17.424-3.26-25.603l-17.366,44.02L215.559,148z M258.887,168.567h-75.875l9.625,69l10.625-31.875l34.875,17.375   l-22-34.5L258.887,168.567z"/>
  </g>
</svg>
