﻿{
  "Meta": { "DPI": 1200, "Margin": 144 },
  "Parent": "../parent_1200.json",
  "Dimensions": { "X": 0, "Y": 0, "Width": 3288, "Height": 4488 },
  "Vars": {
    "OtherColors": "${CardFace.OtherSide.FieldColors('colors')}",
    "TextColor": "${CardFace.Face.Equals('back') && !CardFace.FieldContains('frame_effects','snow') ? 'white' : 'black'}",
    "ExtrasColor": "${CardFace.Face.Equals('front') ? 'white' : 'black'}"
  },
  "FrameLayers": [
    {
      "Id": "background", "Type": "frame", "Selector": [
        { "Condition": "Vars['Colors'].Length == 0",                               "Source": "../_common/background/planeswalker/Colorless.png" },
        { "Condition": "Vars['Colors'].Length == 1 || bool.Parse(Vars['Hybrid'])", "Source": "../_common/background/planeswalker/${Vars['Colors'][..1]}.png" },
        {                                                                          "Source": "../_common/background/planeswalker/Gold.png" }
      ]
    },
    { "Id": "background-hybrid", "Type": "frame", "Condition": "bool.Parse(Vars['Hybrid'])", "Selector": [ { "Source": "../_common/background/planeswalker/${Vars['Colors'][1..]}.png", "Mask": "../_common/background/color-mask.png" } ] },
    { "Id": "art",               "Type": "art",   "Selector": [ { "Source": "CardFace", "Position": { "Box": { "X": 349, "Y": 560, "Width": 2590, "Height": 3437 } }, "Mask": "masks/mask_art.png" } ] },
    { "Id": "shadow",            "Type": "frame", "Selector": [ { "Source": "../_common/shadows/shadow-planeswalker4-mdfc.png" } ] },
    { "Id": "border",            "Type": "frame", "Selector": [ { "Source": "../_common/border/${CardFace.Field('border_color')}-planeswalker-mdfc.png" } ] },

    {
      "Id": "pinlines", "Type": "frame", "Selector": [
        { "Condition": "Vars['Colors'].Length > 2", "Source": "../_common/pinlines/planeswalker4/mdfc/gold.png" },
        { "Condition": "Vars['Colors'].Length > 0", "Source": "../_common/pinlines/planeswalker4/mdfc/${Vars['Colors'][..1]}.png" },
        {                                           "Source": "../_common/pinlines/planeswalker4/mdfc/colorless.png" }
      ]
    },
    {
      "Id": "pinlines-multi", "Type": "frame", "Condition": "Vars['Colors'].Length == 2", "Selector": [
        { "Source": "../_common/pinlines/planeswalker4/mdfc/${Vars['Colors'][1..]}.png", "Mask": "../_common/masks/color-mask.png" }
      ]
    },
    {
      "Id": "plates", "Type": "frame", "Selector": [
        { "Condition": "Vars['Colors'].Length == 1", "Source": "../_common/plates/planeswalker4/dfc/${CardFace.Face}/${Vars['Colors']}.png" },
        { "Condition": "Vars['Colors'].Length > 1",  "Source": "../_common/plates/planeswalker4/dfc/${CardFace.Face}/gold.png" },
        {                                            "Source": "../_common/plates/planeswalker4/dfc/${CardFace.Face}/colorless.png" }
      ]
    },
    { "Id": "loyalty", "Type": "frame", "Condition": "CardFace.HasField('loyalty')", "Selector": [ { "Source": "../_common/overlays/planeswalker/starting_loyalty.png" } ] },
    {
      "Id": "mdfc-top", "Type": "frame", "Selector": [
        { "Condition": "Vars['Colors'].Length > 1", "Source": "../_common/overlays/mdfc/top/${CardFace.Face}/gold.png",              "Position": { "Box": { "X": 247, "Y": 287, "Width": 294, "Height": 238 } } },
        { "Condition": "Vars['Colors'].Length > 0", "Source": "../_common/overlays/mdfc/top/${CardFace.Face}/${Vars['Colors']}.png", "Position": { "Box": { "X": 247, "Y": 287, "Width": 294, "Height": 238 } } },
        {                                           "Source": "../_common/overlays/mdfc/top/${CardFace.Face}/colorless.png",         "Position": { "Box": { "X": 247, "Y": 287, "Width": 294, "Height": 238 } } }
      ]
    },
    {
      "Id": "mdfc-bottom", "Type": "frame", "Selector": [
        { "Condition": "Vars['OtherColors'].Length > 1", "Source": "../_common/overlays/mdfc/bottom/${CardFace.Face}/gold.png",                   "Position": { "Box": { "X": 216, "Y": 3871, "Width": 1343, "Height": 180 } } },
        { "Condition": "Vars['OtherColors'].Length > 0", "Source": "../_common/overlays/mdfc/bottom/${CardFace.Face}/${Vars['OtherColors']}.png", "Position": { "Box": { "X": 216, "Y": 3871, "Width": 1343, "Height": 180 } } },
        {                                                "Source": "../_common/overlays/mdfc/bottom/${CardFace.Face}/colorless.png",              "Position": { "Box": { "X": 216, "Y": 3871, "Width": 1343, "Height": 180 } } }
      ]
    },
    { "Id": "text", "Type": "text-pw" },
    { "Id": "overlay", "Type": "overlay", "Condition": "CardFace.HasField('art_overlay')", "Selector": [ { "Source": "${CardFace.Field('art_overlay')}" } ] }
  ],
  "Spans": [
    {
      "Id": "Name / ManaCost",
      "Position": { "Box": { "X": 352, "Y": 306, "Width": 2584, "Height": 200 } },
      "Elements": [
        { "Text": { "Value": "${CardFace.Field('mana_cost')}", "Adjust": -0.06,                                          "Font": { "RegularFont": "Beleren2016NL",                                  "Size": 182 }, "Shadow": { "X": -4, "Y": 11 } }, "Align": { "H": "right", "V": "middle" } },
        { "Text": { "Value": "${CardFace.Field('name')}",      "Adjust": -0.06, "Margins": { "Left": 272, "Right": 20 }, "Font": { "RegularFont": "Beleren2016NL", "Color": "${Vars['TextColor']}", "Size": 160 } },                                 "Align": { "H": "left",  "V": "middle" } }
      ]
    },
    {
      "Id": "TypeLine / SetSymbol",
      "Position": { "Box": { "X": 352, "Y": 2244, "Width": 2584, "Height": 200 } },
      "Elements": [
        { "Img":  { "Path": "../../../sets/${CardFace.Field('set_symbol') ?? CardFace.Field('set')}/${CardFace.Field('rarity')}.svg", "Height": 170,              "Margins": { "Right": 10 } }, "Condition": "!CardFace.FieldTrue('no_expansion')",  "Align": { "H": "right", "V": "center" } },
        { "Img":  { "Path": "../_common/color_indicators/${CardFace.FieldColors('color_indicator')}.png",                             "Height": 129, "Adjust": 3, "Margins": { "Left":  18 } }, "Condition": "CardFace.HasField('color_indicator')", "Align": { "H": "left",  "V": "center" } },
        { "Text": { "Value": "${CardFace.Field('type_line')}", "Adjust": -0.06, "Margins": { "Left": 30, "Right": 20 }, "Font": { "RegularFont": "Beleren2016NL", "Color": "${Vars['TextColor']}", "Size": 135 } }, "Align": { "H": "left", "V": "middle" } }
      ]
    },
    {
      "Id": "ModalDFC extras",
      "Position": { "Box": { "X": 331, "Y": 3881, "Width": 1118, "Height": 160 } },
      "Elements": [
        { "Text": { "Value": "${CardFace.OtherSide.FieldContains('type_line','Land') ? CardFace.OtherSide.Field('oracle_text') : CardFace.OtherSide.Field('mana_cost')}",                                                                                   "Font": { "RegularFont": "Plantin MT Pro", "Color": "${Vars['ExtrasColor']}", "Size": 116 } }, "Align": { "H": "right", "V": "middle" } },
        { "Text": { "Value": "${(CardFace.OtherSide.Field('type_line').Split('—').Skip(1).FirstOrDefault() ?? CardFace.OtherSide.Field('type_line').Split('—').First().Split(' ').Last()).Trim()}", "Adjust": -0.03, "Margins": { "Left": 5, "Right": 10 }, "Font": { "RegularFont": "Beleren2016NL",    "Color": "${Vars['ExtrasColor']}", "Size": 92 } },  "Align": { "H": "left",  "V": "middle" } }
      ]
    },
    {
      "Id": "Loyalty",
      "Position": { "Box": { "X": 2656, "Y": 3917, "Width": 250, "Height": 170 } },
      "Elements": [
        { "Text": { "Value": "${CardFace.Field('loyalty')}", "Font": { "RegularFont": "Beleren2016NL", "Color": "white", "Size": 160 } }, "Align": { "H": "center", "V": "middle" } }
      ]
    }
  ],
  "TextBoxes": [
    {
      "Id": "TextBox",
      "Source": "CardFace.Text",
      "Position": { "Box": { "X": 500, "Y": 2535, "Width": 2423, "Height": 1335 } },
      "FontParameters": { "RegularFont": "Plantin MT Pro", "ItalicFont": "Plantin MT Pro|Italic", "Size": 150 },
      "SectionParameters": { "LineGapRatio": -0.3, "ParagraphGapRatio": 0.15, "ParagraphMargins": { "Left": 36, "Right": 36 }, "Indentation": 140 },
      "Separators": [
        { "Image": "../_common/masks/planeswalker/mask_transition_top.png",    "Height": 60 },
        { "Image": "../_common/masks/planeswalker/mask_transition_bottom.png", "Height": 60 },
        { "Image": "../_common/masks/planeswalker/mask_transition_top.png",    "Height": 60 }
      ],
      "BackgroundMask": "masks/mask_textbox.png",
      "BackgroundFiller": "../_common/masks/planeswalker/mask_filler.png",
      "Indicator": {
        "ImagePosition": 255,
        "Images": {
          "+": { "Path": "../_common/overlays/planeswalker/ability_positive.png", "Adjust": -12 },
          "0": { "Path": "../_common/overlays/planeswalker/ability_zero.png",     "Adjust": 15 },
          "-": { "Path": "../_common/overlays/planeswalker/ability_negative.png", "Adjust": 41 }
        },
        "Label": {
          "Positions": { "+": { "X": 183, "Y": 157 }, "0": { "X": 183, "Y": 127 }, "-": { "X": 183, "Y": 120 } },
          "Font": { "RegularFont": "Beleren2016NL", "Color": "white", "Size": 128 }
        }
      }
    }
  ]
}