﻿{
  "Meta": { "DPI": 1200, "Margin": 144 },
  "Parent": "../parent_1200.json",
  "Dimensions": { "X": 0, "Y": 0, "Width": 3288, "Height": 4488 },
  "FrameLayers": [
    { "Id": "background",        "Type": "frame",                                            "Selector": [ { "Source": "../_common/background/standard/${Vars['Colors'].Length == 1 || bool.Parse(Vars['Hybrid']) ? Vars['Colors'][..1] : 'gold'}.png" } ] },
    { "Id": "background-hybrid", "Type": "frame", "Condition": "bool.Parse(Vars['Hybrid'])", "Selector": [ { "Source": "../_common/background/standard/${Vars['Colors'][1..]}.png", "Mask": "../_common/background/color-mask.png" } ] },
    { "Id": "art",               "Type": "art",                                              "Selector": [ { "Source": "CardFace", "Position": { "Box": { "X": 1639, "Y": 605, "Width": 1297, "Height": 3073 } } } ] },
    { "Id": "textbox",           "Type": "frame",                                            "Selector": [ { "Source": "textbox/${Vars['Colors'].Length > 1 ? 'gold' : Vars['Colors']}.png" } ] },
    { "Id": "shadow",            "Type": "frame",                                            "Selector": [ { "Source": "../_common/shadows/shadow-saga-transform-${CardFace.Face}.png" } ] },
    { "Id": "border",            "Type": "frame",                                            "Selector": [ { "Source": "../_common/border/${CardFace.Field('border_color')}-saga.png" } ] },
    { "Id": "pinlines",          "Type": "frame",                                            "Selector": [ { "Source": "../_common/pinlines/saga/transform/${Vars['Colors'].Length > 2 ? 'gold' : Vars['Colors'][..1]}.png" } ] },
    { "Id": "pinlines-multi",    "Type": "frame", "Condition": "Vars['Colors'].Length == 2", "Selector": [ { "Source": "../_common/pinlines/saga/transform/${Vars['Colors'][1..]}.png", "Mask": "../_common/masks/color-mask.png" } ] },
    { "Id": "banner",            "Type": "frame",                                            "Selector": [ { "Source": "overlays/banner/${Vars['Colors'].Length > 2 ? 'gold' : Vars['Colors']}.png" } ] },
    { "Id": "plates",            "Type": "frame",                                            "Selector": [ { "Source": "../_common/plates/saga/dfc/${CardFace.Face}/${Vars['Colors'].Length > 1 ? 'gold' : Vars['Colors']}.png" } ] },
    { "Id": "tdfc",              "Type": "frame",                                            "Selector": [ { "Condition": "CardFace.FieldContains('frame_effects','fandfc')", "Source": "../_common/overlays/transform/${CardFace.Face}/fandfc.png", "Position": { "Box": { "X": 300, "Y": 332, "Width": 254, "Height": 254 } } } ] },
    { "Id": "text",              "Type": "text-vert" }
  ],
  "Spans": [
    {
      "Id": "Name / ManaCost",
      "Position": { "Box": { "X": 352, "Y": 362, "Width": 2584, "Height": 200 } },
      "Elements": [
        { "Text": { "Value": "${CardFace.Field('mana_cost')}", "Adjust": -0.06,                                          "Font": { "RegularFont": "Beleren2016NL",                   "Size": 182 }, "Shadow": { "X": -4, "Y": 11 } }, "Align": { "H": "right", "V": "middle" } },
        { "Text": { "Value": "${CardFace.Field('name')}",      "Adjust": -0.06, "Margins": { "Left": 272, "Right": 20 }, "Font": { "RegularFont": "Beleren2016NL", "Color": "black", "Size": 160 } },                                 "Align": { "H": "left",  "V": "middle" } }
      ]
    },
    {
      "Id": "TypeLine / SetSymbol",
      "Position": { "Box": { "X": 352, "Y": 3720, "Width": 2584, "Height": 200 } },
      "Elements": [
        { "Img":  { "Path": "../../../sets/${CardFace.Field('set_symbol') ?? CardFace.Field('set')}/${CardFace.Field('rarity')}.svg", "Height": 170,              "Margins": { "Right": 10 } }, "Condition": "!CardFace.FieldTrue('no_expansion')",  "Align": { "H": "right", "V": "center" } },
        { "Img":  { "Path": "../_common/color_indicators/${CardFace.FieldColors('color_indicator')}.png",                             "Height": 129, "Adjust": 3, "Margins": { "Left":  18 } }, "Condition": "CardFace.HasField('color_indicator')", "Align": { "H": "left",  "V": "center" } },
        { "Text": { "Value": "${CardFace.Field('type_line')}", "Adjust": -0.06, "Margins": { "Left": 30, "Right": 20 }, "Font": { "RegularFont": "Beleren2016NL", "Color": "black", "Size": 135 } }, "Align": { "H": "left", "V": "middle" } }
      ]
    },
    {
      "Id": "TransformDFC extras",
      "Position": { "Box": { "X": 379, "Y": 3534, "Width": 200, "Height": 100 } },
      "Condition": "CardFace.Face.Equals('front') && CardFace.OtherSide.HasField('power') && CardFace.OtherSide.HasField('toughness')",
      "Elements": [
        { "Text": { "Value": "${CardFace.OtherSide.Field('power')}∕${CardFace.OtherSide.Field('toughness')}", "Font": { "RegularFont": "Beleren2016NL", "Color": "black", "Size": 100 } }, "Align": { "H": "left", "V": "middle" } }
      ]
    }
  ],
  "TextBoxes": [
    {
      "Id": "TextBox",
      "Source": "CardFace.Text",
      "Position": { "Box": { "X": 379, "Y": 632, "Width": 1244, "Height": 2910 } },
      "FontParameters": { "RegularFont": "Plantin MT Pro", "ItalicFont": "Plantin MT Pro|Italic", "Size": 150 },
      "SectionParameters": { "Indentation": 110, "LineGapRatio": -0.3, "ParagraphGapRatio": 0.15, "ParagraphMargins": { "Left": 24, "Right": 24 } },
      "Separators": [
        { "Image": "../_common/overlays/saga/divider.png", "Height": 120, "Margins": { "Left": 86 }, "Align": "top" },
        { "Image": "../_common/overlays/saga/divider.png", "Height": 120, "Margins": { "Left": 86 }, "Align": "center" },
        { "Image": "../_common/overlays/saga/divider.png", "Height": 120, "Margins": { "Left": 86 }, "Align": "center" },
        { "Image": "../_common/overlays/saga/divider.png", "Height": 120, "Margins": { "Left": 86 }, "Align": "center" }
      ],
      "FixedSections": [ { "Idx": 0, "Height": 727, "FontSize": 122 } ],
      "Indicator": {
        "ImagePosition": 236,
        "ImageSpacing": 50,
        "Images": {
          "I":   { "Path": "../_common/overlays/saga/chapter_I.png" },
          "II":  { "Path": "../_common/overlays/saga/chapter_II.png" },
          "III": { "Path": "../_common/overlays/saga/chapter_III.png" },
          "IV":  { "Path": "../_common/overlays/saga/chapter_IV.png" }
        }
      }
    }
  ]
}