<?xml version="1.0" encoding="UTF-8" standalone="no"?>
<svg xmlns="http://www.w3.org/2000/svg" version="1.1" width="600" height="600" viewBox="0 0 600 600">
  <circle cx="300" cy="300" r="300" style="fill:#D7D0CD;stroke-width:6"/>
  <path d="M 385.62013,404.16597 V 444.504 c 0,46.10399 16.16999,69.14999 48.56403,69.14999 h 13.97998 v 26.36398 H 252.21612 v -26.36398 h 15.64201 c 31.81797,0 47.76594,-22.78798 47.76594,-68.35201 V 404.16597 H 118.85415 v -41.166 L 326.32212,60.01799 h 59.29801 v 309.552 h 4.92001 c 20.29799,0 35.11195,-15.64798 44.44797,-46.896 h 24.68998 l -11.51998,81.49802 -62.53798,-0.007 v 0 z M 315.62407,369.56999 V 120.82201 L 148.2661,369.56999 Z"/>
</svg>
