<?xml version="1.0" encoding="UTF-8" standalone="no"?>
<svg xmlns="http://www.w3.org/2000/svg" version="1.1" width="600" height="600" viewBox="0 0 600 600">
  <circle cx="300" cy="300" r="300" style="fill:#D7D0CD;stroke-width:6"/>
  <path d="m 380.41213,333.15596 c -35.53202,33.40203 -71.38801,50.11799 -107.45999,50.11799 -39.33003,0 -70.85402,-15.62399 -94.54802,-46.88396 -22.104,-28.54801 -33.138,-63.04197 -33.138,-103.44599 0,-43.63197 12.91201,-82.66198 38.76602,-117.15601 28.032,-37.19397 63.33002,-55.775959 105.88797,-55.775959 51.73201,0 92.93404,22.367993 123.63002,67.085999 27.49201,39.32396 41.20203,85.914 41.20203,139.81198 0,76.47593 -25.34403,140.98797 -75.93002,193.54197 -50.64601,52.51197 -113.95802,79.04399 -189.91801,79.56597 v -25.04998 c 23.154,-1.05601 41.71801,-3.75598 55.782,-8.064 77.532,-23.70597 122.81402,-81.60598 135.726,-173.74801 z m 4.878,-48.49193 c 0.51601,-10.23602 0.774,-19.93201 0.774,-29.07603 0,-37.70998 -6.44398,-72.20398 -19.37997,-103.43999 -17.25002,-41.49601 -42.00002,-62.243985 -74.31602,-62.243985 -28.05599,0 -48.74999,14.309965 -62.25,42.845965 -10.78202,22.09803 -16.146,48.75603 -16.146,80.00402 0,33.39599 5.112,61.944 15.35399,85.64997 13.99203,32.32197 35.55601,48.498 64.66203,48.498 35.51997,0 65.93995,-20.74804 91.30197,-62.23795 z" />
</svg>
