<?xml version="1.0" encoding="utf-8"?>
<!-- Generator: Adobe Illustrator 15.1.0, SVG Export Plug-In . SVG Version: 6.00 Build 0)  -->
<!DOCTYPE svg PUBLIC "-//W3C//DTD SVG 1.1//EN" "http://www.w3.org/Graphics/SVG/1.1/DTD/svg11.dtd">
<svg version="1.1"
	 id="Layer_1" xmlns:svg="http://www.w3.org/2000/svg" xmlns:cc="http://creativecommons.org/ns#" xmlns:rdf="http://www.w3.org/1999/02/22-rdf-syntax-ns#" xmlns:dc="http://purl.org/dc/elements/1.1/"
	 xmlns="http://www.w3.org/2000/svg" xmlns:xlink="http://www.w3.org/1999/xlink" x="0px" y="0px" width="375px" height="500px"
	 viewBox="0 0 375 500" enable-background="new 0 0 375 500" xml:space="preserve">
<g>
	<path d="M187.217,56.432c43.305,0,59.067-49.353,59.067-49.353l118.389,93.202c0,0-7.54,178.814-7.775,185.494
		c-0.561,15.715-7.097,30.464-11.282,40.731c-15.108,36.943-72.238,116.75-148.229,165.572h-20.337
		c-75.991-48.822-133.12-128.629-148.22-165.572c-4.196-10.269-10.737-25.019-11.287-40.731
		c-0.237-6.68-7.777-185.494-7.777-185.494L128.15,7.079C128.15,7.079,143.908,56.432,187.217,56.432z"/>
	
		<linearGradient id="SVGID_1_" gradientUnits="userSpaceOnUse" x1="26.2568" y1="247.0918" x2="348.1709" y2="247.0918" gradientTransform="matrix(1 0 0 -1 0 501)">
		<stop  offset="0" style="stop-color:#8D742F"/>
		<stop  offset="0.0286" style="stop-color:#927934"/>
		<stop  offset="0.1967" style="stop-color:#AA914B"/>
		<stop  offset="0.3" style="stop-color:#B39A54"/>
		<stop  offset="0.3145" style="stop-color:#B9A059"/>
		<stop  offset="0.3681" style="stop-color:#CAB068"/>
		<stop  offset="0.4268" style="stop-color:#D4BA71"/>
		<stop  offset="0.5" style="stop-color:#D7BD74"/>
		<stop  offset="0.5732" style="stop-color:#D4BA71"/>
		<stop  offset="0.6319" style="stop-color:#CAB068"/>
		<stop  offset="0.6855" style="stop-color:#B9A059"/>
		<stop  offset="0.7" style="stop-color:#B39A54"/>
		<stop  offset="0.8033" style="stop-color:#AA914B"/>
		<stop  offset="0.9714" style="stop-color:#927934"/>
		<stop  offset="1" style="stop-color:#8D742F"/>
	</linearGradient>
	<path fill="url(#SVGID_1_)" d="M181.832,476.496C94.47,417.264,43.611,329.907,40.619,312.555
		c-1.995-11.566-1.199-21.74,2.396-30.521c8.374,26.324,24.728,56.249,49.063,89.754c26.041,34.727,51.887,59.109,77.539,73.138
		h35.199c25.647-14.028,51.498-38.411,77.539-73.138c24.336-33.505,40.694-63.43,49.067-89.754l0,0
		c3.581,8.781,4.387,18.955,2.388,30.521c-2.992,17.354-53.853,104.709-141.209,163.941H181.832L181.832,476.496z M187.217,78.588
		l-14.958,44.285l-52.658,31.108l-46.672-11.964l32.311,37.104v62.226l-32.311,37.105l47.269-12.58l51.46,31.715l15.559,49.067
		l15.559-49.067l51.466-31.715l47.269,12.58l-32.32-37.105v-62.226l32.32-37.104l-46.682,11.964l-52.653-31.108L187.217,78.588
		L187.217,78.588z M26.257,127.06c37.517,50.944,39.847,96.612,6.991,136.995l-1.009,1.221L26.257,127.06z M348.171,127.06
		l-5.986,138.215l-1.005-1.221C308.33,223.671,310.66,178.004,348.171,127.06L348.171,127.06z M174.05,430.422
		c-56.642-39.084-97.133-93.939-121.463-164.55c31.596-43.83,24.089-96.659-22.512-158.478l-1.425-1.875l93.945-74.199
		c13.428,27.65,34.675,41.215,63.737,40.704l0.886-0.009l0.886,0.009c29.063,0.512,50.31-13.053,63.732-40.704l93.95,74.199
		l-1.421,1.875c-46.605,61.818-54.108,114.647-22.518,158.478c-24.336,70.608-64.82,125.466-121.464,164.55H174.05L174.05,430.422z"
		/>
	<polygon fill="#FFFFFF" points="123.789,246.728 123.789,173.135 187.217,134.837 250.641,173.135 250.641,246.728 
		187.217,285.623 	"/>
</g>
</svg>
