<?xml version="1.0" encoding="utf-8"?>
<!-- Generator: Adobe Illustrator 15.1.0, SVG Export Plug-In . SVG Version: 6.00 Build 0)  -->
<!DOCTYPE svg PUBLIC "-//W3C//DTD SVG 1.1//EN" "http://www.w3.org/Graphics/SVG/1.1/DTD/svg11.dtd">
<svg version="1.1"
	 id="Layer_1" xmlns:svg="http://www.w3.org/2000/svg" xmlns:cc="http://creativecommons.org/ns#" xmlns:rdf="http://www.w3.org/1999/02/22-rdf-syntax-ns#" xmlns:dc="http://purl.org/dc/elements/1.1/"
	 xmlns="http://www.w3.org/2000/svg" xmlns:xlink="http://www.w3.org/1999/xlink" x="0px" y="0px" width="375px" height="460px"
	 viewBox="0 0 375 460" enable-background="new 0 0 375 460" xml:space="preserve">
<g>
	<path fill="#FFFFFF" d="M229.509,438.137v-3.894c11.406-2.557,22.231-14.261,22.231-14.261v-1.595
		c12.566-3.129,23.916-19.254,23.916-19.254v-4.739l4.771-4.122c34.974-30.222,60.325-66.704,75.091-126.682
		c0,0-14.469,2.302-23.036-7.194c3.312-6.854,6.346-16.066,6.328-29.121c16.486-12.797,23.181-34.281,19.661-63.702l-0.633-5.296
		c3.992-4.984,6.834-9.863,8.601-14.697c3.353-9.2,5.177-18.478,5.177-27.756c0-26.285-9.743-43.722-9.743-43.722
		c-3.33,3.679-8.218,7.232-8.218,7.232V62.459C326.737,40.385,275.135,24.17,225.833,18.79c0,0-12.978-13.732-37.843-13.732
		c-24.864,0-37.841,13.732-37.841,13.732C100.845,24.17,49.244,40.385,22.328,62.459v16.876c0,0-4.89-3.553-8.218-7.232
		c0,0-9.745,17.437-9.745,43.722c0,9.278,1.824,18.556,5.177,27.756c1.765,4.834,4.608,9.713,8.601,14.697l-0.632,5.296
		c-3.52,29.421,3.172,50.904,19.659,63.703c-0.017,13.053,3.021,22.266,6.331,29.121c-8.569,9.494-23.039,7.193-23.039,7.193
		c14.765,59.977,40.121,96.46,75.091,126.682l4.772,4.123v4.738c0,0,11.347,16.125,23.917,19.254v1.595
		c0,0,10.825,11.704,22.23,14.261v3.894c0,0,15.451,16.921,41.519,16.921C214.055,455.058,229.509,438.137,229.509,438.137z"/>
	<path d="M151.254,290.387c-5.573-6.173-9.685-10.406-12.223-12.58l-0.932-0.813c-4.566-3.919-10.716-8.107-25.832-8.107
		c-14.56,0-32.44-0.703-38.958-2.683c-13.908-4.587-21.491-17.082-22.566-37.147l-0.115-2.158l1.937,0.961
		c13.718,6.798,29.154,11.318,45.885,13.436c0.222,0.021,0.472,0.033,0.71,0.033c1.341,0,2.256-0.396,2.333-1.008
		c0.082-0.682-0.752-1.926-2.802-2.432c-27.472-7.795-44.607-14.525-52.427-20.601c-13.169-9.799-18.354-27.339-15.391-52.117
		l0.266-2.23l1.766,1.388c19.419,15.256,35.87,25.751,48.898,31.194c2.334,1.103,3.811,1.331,4.649,1.331
		c0.516,0,1.4-0.088,1.544-0.678c0.256-1.051-1.181-4.241-7.262-7.396c-34.271-19.433-53.409-35.718-58.549-49.81
		c-5.054-13.861-5.713-27.905-1.959-41.74l0.507-1.869l1.505,1.218c33.514,27.134,65.416,48.638,94.823,63.915
		c5.709,3.004,9.196,5.6,10.665,7.942c1.94,3.545,2.096,8.268,2.096,13.208c0,19.971,25.409,43.185,58.159,43.185h0.964
		c32.205-0.464,57.201-23.591,57.201-43.185c0-4.938,0.155-9.661,2.062-13.144c1.503-2.407,4.985-5.005,10.694-8.005
		c29.414-15.281,61.318-36.786,94.829-63.917l1.507-1.218l0.507,1.869c3.753,13.841,3.092,27.885-1.96,41.739
		c-5.14,14.087-24.277,30.374-58.51,49.788c-6.119,3.179-7.558,6.369-7.303,7.419c0.147,0.589,1.029,0.678,1.545,0.678
		c0.838,0,2.314-0.228,4.596-1.306c13.098-5.475,29.551-15.97,48.952-31.22l1.766-1.388l0.264,2.23
		c2.966,24.782-2.218,42.32-15.41,52.136c-7.799,6.059-24.934,12.789-52.366,20.571c-2.09,0.519-2.922,1.763-2.84,2.442
		c0.072,0.613,0.992,1.009,2.332,1.009c0.237,0,0.488-0.013,0.756-0.038c16.683-2.111,32.117-6.633,45.84-13.43l1.935-0.961
		l-0.115,2.156c-1.075,20.066-8.657,32.563-22.53,37.141c-4.912,1.5-15.687,2.152-23.863,2.437l-1.807,0.058
		c-4.534,0.141-9.118,0.197-13.323,0.197c-15.468,0-21.476,4.215-26.742,8.904c-2.55,2.186-6.666,6.415-12.243,12.596l-1.904,2.111
		l-0.285-2.829c-1.945-19.205-13.27-29.224-34.626-30.616c-21.184,1.395-32.512,11.411-34.454,30.616l-0.286,2.829L151.254,290.387z
		 M188.335,252.335c20.011,1.31,33.302,10.21,38.595,25.788c2.297-2.374,4.133-4.141,5.573-5.372
		c6.004-5.353,13.382-10.592,31.198-10.592c4.14,0,8.648-0.058,13.109-0.193l1.789-0.058c10.664-0.374,18.891-1.162,22.012-2.111
		c8.99-2.965,14.511-10.131,16.802-21.861c-12.042,4.908-25.212,8.287-39.188,10.055c-0.525,0.05-0.981,0.064-1.414,0.064
		c-5.644,0-8.592-3.479-9.011-6.925c-0.534-4.405,2.712-8.505,7.729-9.737c26.171-7.426,43.051-13.979,50.12-19.468
		c9.392-6.99,13.927-19.126,13.503-36.105c-16.424,12.307-30.619,20.994-42.213,25.834c-2.687,1.269-5.199,1.926-7.422,1.926
		c-4.912,0-7.393-2.998-8.082-5.808c-1.258-5.154,2.791-10.858,10.563-14.888c32.287-18.314,50.962-33.874,55.468-46.223
		c3.532-9.685,4.694-19.503,3.462-29.216c-31.297,24.772-61.195,44.62-88.902,59.011c-6.62,3.484-7.959,5.347-7.967,5.365
		c-1.184,2.173-1.184,6.597-1.184,9.824c0,25.647-30.451,49.437-63.883,49.912h-1.002c-33.358,0-64.895-24.256-64.895-49.912
		c0-3.049,0-7.659-1.111-9.703c-0.084-0.131-1.374-1.979-8.029-5.481c-27.711-14.393-57.614-34.245-88.913-59.02
		c-1.232,9.714-0.067,19.534,3.464,29.22c4.508,12.352,23.135,27.885,55.37,46.168c7.816,4.056,11.915,9.792,10.658,14.941
		c-0.688,2.81-3.17,5.808-8.083,5.808c-2.193,0-4.717-0.645-7.299-1.873c-11.643-4.86-25.893-13.574-42.333-25.889
		c-0.421,16.979,4.132,29.134,13.551,36.141c7.042,5.471,23.85,11.997,49.976,19.41c5.049,1.244,8.36,5.355,7.826,9.763
		c-0.421,3.446-3.37,6.925-9.013,6.925c-0.429,0-0.885-0.016-1.52-0.076c-13.936-1.764-27.06-5.14-39.083-10.043
		c2.286,11.727,7.774,18.881,16.736,21.838c4.68,1.425,19.55,2.387,36.975,2.387c16.584,0,24.347,4.693,30.265,9.771l0.885,0.776
		c1.48,1.269,3.331,3.05,5.623,5.416c5.292-15.578,18.587-24.479,38.588-25.788l0.431-0.018L188.335,252.335z"/>
	<path d="M161.787,431.942l-0.596-0.519V295.645c0-17.857,8.933-27.478,26.799-28.84l0.727,0.063
		c17.379,1.569,26.068,11.155,26.068,28.774v135.78l-0.6,0.519c-6.604,5.595-15.345,8.395-26.195,8.395
		C177.131,440.337,168.399,437.537,161.787,431.942L161.787,431.942z M138.961,291.355c4.409,4.683,8.82,9.973,13.227,15.861
		v113.095c-4.836-0.552-9.245-2.735-13.227-6.58V291.355z M237.005,291.355v122.376c-3.976,3.845-8.387,6.028-13.226,6.58V307.218
		C228.189,301.328,232.602,296.038,237.005,291.355z M115.044,278.739c4.505,0,9.013,1.403,13.521,4.214v121.314
		c-5.277-2.095-9.781-5.504-13.521-10.241V278.739L115.044,278.739z M260.924,278.739v115.287
		c-3.736,4.737-8.246,8.146-13.521,10.241V282.953C251.913,280.145,256.423,278.739,260.924,278.739z M54.867,265.811
		c3.826,5.987,8.321,9.414,13.49,10.275c5.168,0.862,17.443,1.75,36.82,2.653v100.395c-32.88-28.413-54.961-63.118-66.245-104.124
		c6.458-0.287,11.772-3.352,15.938-9.199H54.867z M321.102,265.811c4.165,5.849,9.479,8.912,15.937,9.199
		c-11.286,41.006-33.365,75.711-66.247,104.124V278.739c19.377-0.903,31.657-1.791,36.824-2.653
		C312.78,275.225,317.282,271.798,321.102,265.811L321.102,265.811z M161.762,209.879l-0.575-0.402V28.634
		c6.209-5.713,14.506-8.664,24.889-8.859l0.952-0.008l0.961,0.004l0.961-0.004l0.944,0.008c10.383,0.195,18.68,3.146,24.89,8.859
		v180.843l-0.576,0.402c-6.185,4.28-14.924,6.415-26.219,6.415C176.696,216.294,167.956,214.159,161.762,209.879L161.762,209.879z
		 M152.19,52.988v149.909c-6.341-4.607-10.75-12.666-13.229-24.162V74.437c1.955-10.247,6.366-17.397,13.227-21.447L152.19,52.988z
		 M223.779,52.988c6.867,4.052,11.271,11.202,13.226,21.449v104.298c-2.473,11.496-6.885,19.555-13.226,24.167V52.99V52.988z
		 M128.563,88.514v68.663c-4.475-3.049-8.981-6.054-13.517-9.011v-37.487C115.046,100.232,119.549,92.847,128.563,88.514
		L128.563,88.514z M247.402,88.514c9.021,4.333,13.521,11.718,13.521,22.164v37.487c-4.533,2.957-9.044,5.962-13.521,9.011V88.514
		L247.402,88.514z M152.192,33.376v9.011c-13.888,6.202-21.763,17.418-23.628,33.647c-15.476,8.171-23.197,18.811-23.156,31.917
		l0.008,0.694v35.013c-24.055-13.307-46.108-27.801-66.15-43.482l-2.218-1.748V70.35c29.396-19.531,67.777-31.859,115.145-36.976
		L152.192,33.376L152.192,33.376z M223.779,33.376c47.371,5.118,85.748,17.445,115.146,36.977v28.076l-2.217,1.746
		c-20.043,15.683-42.098,30.177-66.148,43.48v-35.011l0.008-0.692c0.041-13.106-7.68-23.745-23.155-31.917
		c-1.864-16.229-9.741-27.443-23.632-33.646v-9.015v0.002H223.779z"/>
</g>
</svg>
