﻿[
  { "set":"6ed", "num":"001", "name":"Animate Wall" },
  { "set":"6ed", "num":"002", "name":"Archangel" },
  { "set":"6ed", "num":"003", "name":"Ardent Militia" },
  { "set":"6ed", "num":"004", "name":"Armageddon" },
  { "set":"6ed", "num":"005", "name":"Armored Pegasus" },
  { "set":"6ed", "num":"006", "name":"Castle" },
  { "set":"6ed", "num":"007", "name":"Celestial Dawn" },
  { "set":"6ed", "num":"008", "name":"Circle of Protection: Black" },
  { "set":"6ed", "num":"009", "name":"Circle of Protection: Blue" },
  { "set":"6ed", "num":"010", "name":"Circle of Protection: Green" },
  { "set":"6ed", "num":"011", "name":"Circle of Protection: Red" },
  { "set":"6ed", "num":"012", "name":"Circle of Protection: White" },
  { "set":"6ed", "num":"013", "name":"Crusade" },
  { "set":"6ed", "num":"014", "name":"Daraja Griffin" },
  { "set":"6ed", "num":"015", "name":"D'Avenant Archer" },
  { "set":"6ed", "num":"016", "name":"Disenchant" },
  { "set":"6ed", "num":"017", "name":"Divine Transformation" },
  { "set":"6ed", "num":"018", "name":"Ekundu Griffin" },
  { "set":"6ed", "num":"019", "name":"Enlightened Tutor" },
  { "set":"6ed", "num":"020", "name":"Ethereal Champion" },
  { "set":"6ed", "num":"021", "name":"Exile" },
  { "set":"6ed", "num":"022", "name":"Healing Salve" },
  { "set":"6ed", "num":"023", "name":"Heavy Ballista" },
  { "set":"6ed", "num":"024", "name":"Hero's Resolve" },
  { "set":"6ed", "num":"025", "name":"Icatian Town" },
  { "set":"6ed", "num":"026", "name":"Infantry Veteran" },
  { "set":"6ed", "num":"027", "name":"Kismet" },
  { "set":"6ed", "num":"028", "name":"Kjeldoran Royal Guard" },
  { "set":"6ed", "num":"029", "name":"Light of Day" },
  { "set":"6ed", "num":"030", "name":"Longbow Archer" },
  { "set":"6ed", "num":"031", "name":"Mesa Falcon" },
  { "set":"6ed", "num":"032", "name":"Order of the Sacred Torch" },
  { "set":"6ed", "num":"033", "name":"Pacifism" },
  { "set":"6ed", "num":"034", "name":"Pearl Dragon" },
  { "set":"6ed", "num":"035", "name":"Regal Unicorn" },
  { "set":"6ed", "num":"036", "name":"Remedy" },
  { "set":"6ed", "num":"037", "name":"Reprisal" },
  { "set":"6ed", "num":"038", "name":"Resistance Fighter" },
  { "set":"6ed", "num":"039", "name":"Reverse Damage" },
  { "set":"6ed", "num":"040", "name":"Samite Healer" },
  { "set":"6ed", "num":"041", "name":"Serenity" },
  { "set":"6ed", "num":"042", "name":"Serra's Blessing" },
  { "set":"6ed", "num":"043", "name":"Spirit Link" },
  { "set":"6ed", "num":"044", "name":"Standing Troops" },
  { "set":"6ed", "num":"045", "name":"Staunch Defenders" },
  { "set":"6ed", "num":"046", "name":"Sunweb" },
  { "set":"6ed", "num":"047", "name":"Tariff" },
  { "set":"6ed", "num":"048", "name":"Tundra Wolves" },
  { "set":"6ed", "num":"049", "name":"Unyaro Griffin" },
  { "set":"6ed", "num":"050", "name":"Venerable Monk" },
  { "set":"6ed", "num":"051", "name":"Wall of Swords" },
  { "set":"6ed", "num":"052", "name":"Warmth" },
  { "set":"6ed", "num":"053", "name":"Warrior's Honor" },
  { "set":"6ed", "num":"054", "name":"Wrath of God" },
  { "set":"6ed", "num":"055", "name":"Abduction" },
  { "set":"6ed", "num":"056", "name":"Air Elemental" },
  { "set":"6ed", "num":"057", "name":"Ancestral Memories" },
  { "set":"6ed", "num":"058", "name":"Boomerang" },
  { "set":"6ed", "num":"059", "name":"Browse" },
  { "set":"6ed", "num":"060", "name":"Chill" },
  { "set":"6ed", "num":"061", "name":"Counterspell" },
  { "set":"6ed", "num":"062", "name":"Daring Apprentice" },
  { "set":"6ed", "num":"063", "name":"Deflection" },
  { "set":"6ed", "num":"064", "name":"Desertion" },
  { "set":"6ed", "num":"065", "name":"Diminishing Returns" },
  { "set":"6ed", "num":"066", "name":"Dream Cache" },
  { "set":"6ed", "num":"067", "name":"Flash" },
  { "set":"6ed", "num":"068", "name":"Flight" },
  { "set":"6ed", "num":"069", "name":"Fog Elemental" },
  { "set":"6ed", "num":"070", "name":"Forget" },
  { "set":"6ed", "num":"071", "name":"Gaseous Form" },
  { "set":"6ed", "num":"072", "name":"Glacial Wall" },
  { "set":"6ed", "num":"073", "name":"Harmattan Efreet" },
  { "set":"6ed", "num":"074", "name":"Horned Turtle" },
  { "set":"6ed", "num":"075", "name":"Insight" },
  { "set":"6ed", "num":"076", "name":"Inspiration" },
  { "set":"6ed", "num":"077", "name":"Juxtapose" },
  { "set":"6ed", "num":"078", "name":"Library of Lat-Nam" },
  { "set":"6ed", "num":"079", "name":"Lord of Atlantis" },
  { "set":"6ed", "num":"080", "name":"Mana Short" },
  { "set":"6ed", "num":"081", "name":"Memory Lapse" },
  { "set":"6ed", "num":"082", "name":"Merfolk of the Pearl Trident" },
  { "set":"6ed", "num":"083", "name":"Mystical Tutor" },
  { "set":"6ed", "num":"084", "name":"Phantasmal Terrain" },
  { "set":"6ed", "num":"085", "name":"Phantom Warrior" },
  { "set":"6ed", "num":"086", "name":"Polymorph" },
  { "set":"6ed", "num":"087", "name":"Power Sink" },
  { "set":"6ed", "num":"088", "name":"Prodigal Sorcerer" },
  { "set":"6ed", "num":"089", "name":"Prosperity" },
  { "set":"6ed", "num":"090", "name":"Psychic Transfer" },
  { "set":"6ed", "num":"091", "name":"Psychic Venom" },
  { "set":"6ed", "num":"092", "name":"Recall" },
  { "set":"6ed", "num":"093", "name":"Relearn" },
  { "set":"6ed", "num":"094", "name":"Remove Soul" },
  { "set":"6ed", "num":"095", "name":"Sage Owl" },
  { "set":"6ed", "num":"096", "name":"Sea Monster" },
  { "set":"6ed", "num":"097", "name":"Segovian Leviathan" },
  { "set":"6ed", "num":"098", "name":"Sibilant Spirit" },
  { "set":"6ed", "num":"099", "name":"Soldevi Sage" },
  { "set":"6ed", "num":"100", "name":"Spell Blast" },
  { "set":"6ed", "num":"101", "name":"Storm Crow" },
  { "set":"6ed", "num":"102", "name":"Tidal Surge" },
  { "set":"6ed", "num":"103", "name":"Unsummon" },
  { "set":"6ed", "num":"104", "name":"Vodalian Soldiers" },
  { "set":"6ed", "num":"105", "name":"Wall of Air" },
  { "set":"6ed", "num":"106", "name":"Wind Drake" },
  { "set":"6ed", "num":"107", "name":"Wind Spirit" },
  { "set":"6ed", "num":"108", "name":"Zur's Weirding" },
  { "set":"6ed", "num":"109", "name":"Abyssal Hunter" },
  { "set":"6ed", "num":"110", "name":"Abyssal Specter" },
  { "set":"6ed", "num":"111", "name":"Agonizing Memories" },
  { "set":"6ed", "num":"112", "name":"Ashen Powder" },
  { "set":"6ed", "num":"113", "name":"Blight" },
  { "set":"6ed", "num":"114", "name":"Blighted Shaman" },
  { "set":"6ed", "num":"115", "name":"Blood Pet" },
  { "set":"6ed", "num":"116", "name":"Bog Imp" },
  { "set":"6ed", "num":"117", "name":"Bog Rats" },
  { "set":"6ed", "num":"118", "name":"Bog Wraith" },
  { "set":"6ed", "num":"119", "name":"Coercion" },
  { "set":"6ed", "num":"120", "name":"Derelor" },
  { "set":"6ed", "num":"121", "name":"Doomsday" },
  { "set":"6ed", "num":"122", "name":"Dread of Night" },
  { "set":"6ed", "num":"123", "name":"Drudge Skeletons" },
  { "set":"6ed", "num":"124", "name":"Dry Spell" },
  { "set":"6ed", "num":"125", "name":"Enfeeblement" },
  { "set":"6ed", "num":"126", "name":"Evil Eye of Orms-by-Gore" },
  { "set":"6ed", "num":"127", "name":"Fallen Angel" },
  { "set":"6ed", "num":"128", "name":"Fatal Blow" },
  { "set":"6ed", "num":"129", "name":"Fear" },
  { "set":"6ed", "num":"130", "name":"Feast of the Unicorn" },
  { "set":"6ed", "num":"131", "name":"Feral Shadow" },
  { "set":"6ed", "num":"132", "name":"Forbidden Crypt" },
  { "set":"6ed", "num":"133", "name":"Gravebane Zombie" },
  { "set":"6ed", "num":"134", "name":"Gravedigger" },
  { "set":"6ed", "num":"135", "name":"Greed" },
  { "set":"6ed", "num":"136", "name":"Hecatomb" },
  { "set":"6ed", "num":"137", "name":"Hidden Horror" },
  { "set":"6ed", "num":"138", "name":"Howl from Beyond" },
  { "set":"6ed", "num":"139", "name":"Infernal Contract" },
  { "set":"6ed", "num":"140", "name":"Kjeldoran Dead" },
  { "set":"6ed", "num":"141", "name":"Leshrac's Rite" },
  { "set":"6ed", "num":"142", "name":"Lost Soul" },
  { "set":"6ed", "num":"143", "name":"Mind Warp" },
  { "set":"6ed", "num":"144", "name":"Mischievous Poltergeist" },
  { "set":"6ed", "num":"145", "name":"Necrosavant" },
  { "set":"6ed", "num":"146", "name":"Nightmare" },
  { "set":"6ed", "num":"147", "name":"Painful Memories" },
  { "set":"6ed", "num":"148", "name":"Perish" },
  { "set":"6ed", "num":"149", "name":"Pestilence" },
  { "set":"6ed", "num":"150", "name":"Python" },
  { "set":"6ed", "num":"151", "name":"Rag Man" },
  { "set":"6ed", "num":"152", "name":"Raise Dead" },
  { "set":"6ed", "num":"153", "name":"Razortooth Rats" },
  { "set":"6ed", "num":"154", "name":"Scathe Zombies" },
  { "set":"6ed", "num":"155", "name":"Sengir Autocrat" },
  { "set":"6ed", "num":"156", "name":"Strands of Night" },
  { "set":"6ed", "num":"157", "name":"Stromgald Cabal" },
  { "set":"6ed", "num":"158", "name":"Stupor" },
  { "set":"6ed", "num":"159", "name":"Syphon Soul" },
  { "set":"6ed", "num":"160", "name":"Terror" },
  { "set":"6ed", "num":"161", "name":"Vampiric Tutor" },
  { "set":"6ed", "num":"162", "name":"Zombie Master" },
  { "set":"6ed", "num":"163", "name":"Aether Flash" },
  { "set":"6ed", "num":"164", "name":"Anaba Bodyguard" },
  { "set":"6ed", "num":"165", "name":"Anaba Shaman" },
  { "set":"6ed", "num":"166", "name":"Balduvian Barbarians" },
  { "set":"6ed", "num":"167", "name":"Balduvian Horde" },
  { "set":"6ed", "num":"168", "name":"Blaze" },
  { "set":"6ed", "num":"169", "name":"Boil" },
  { "set":"6ed", "num":"170", "name":"Burrowing" },
  { "set":"6ed", "num":"171", "name":"Conquer" },
  { "set":"6ed", "num":"172", "name":"Crimson Hellkite" },
  { "set":"6ed", "num":"173", "name":"Earthquake" },
  { "set":"6ed", "num":"174", "name":"Fervor" },
  { "set":"6ed", "num":"175", "name":"Final Fortune" },
  { "set":"6ed", "num":"176", "name":"Fire Elemental" },
  { "set":"6ed", "num":"177", "name":"Firebreathing" },
  { "set":"6ed", "num":"178", "name":"Fit of Rage" },
  { "set":"6ed", "num":"179", "name":"Flame Spirit" },
  { "set":"6ed", "num":"180", "name":"Flashfires" },
  { "set":"6ed", "num":"181", "name":"Giant Strength" },
  { "set":"6ed", "num":"182", "name":"Goblin Digging Team" },
  { "set":"6ed", "num":"183", "name":"Goblin Elite Infantry" },
  { "set":"6ed", "num":"184", "name":"Goblin Hero" },
  { "set":"6ed", "num":"185", "name":"Goblin King" },
  { "set":"6ed", "num":"186", "name":"Goblin Recruiter" },
  { "set":"6ed", "num":"187", "name":"Goblin Warrens" },
  { "set":"6ed", "num":"188", "name":"Hammer of Bogardan" },
  { "set":"6ed", "num":"189", "name":"Hulking Cyclops" },
  { "set":"6ed", "num":"190", "name":"Illicit Auction" },
  { "set":"6ed", "num":"191", "name":"Inferno" },
  { "set":"6ed", "num":"192", "name":"Jokulhaups" },
  { "set":"6ed", "num":"193", "name":"Lightning Blast" },
  { "set":"6ed", "num":"194", "name":"Manabarbs" },
  { "set":"6ed", "num":"195", "name":"Mountain Goat" },
  { "set":"6ed", "num":"196", "name":"Orcish Artillery" },
  { "set":"6ed", "num":"197", "name":"Orcish Oriflamme" },
  { "set":"6ed", "num":"198", "name":"Pillage" },
  { "set":"6ed", "num":"199", "name":"Pyrotechnics" },
  { "set":"6ed", "num":"200", "name":"Raging Goblin" },
  { "set":"6ed", "num":"201", "name":"Reckless Embermage" },
  { "set":"6ed", "num":"202", "name":"Relentless Assault" },
  { "set":"6ed", "num":"203", "name":"Sabretooth Tiger" },
  { "set":"6ed", "num":"204", "name":"Shatter" },
  { "set":"6ed", "num":"205", "name":"Shatterstorm" },
  { "set":"6ed", "num":"206", "name":"Shock" },
  { "set":"6ed", "num":"207", "name":"Spitting Drake" },
  { "set":"6ed", "num":"208", "name":"Spitting Earth" },
  { "set":"6ed", "num":"209", "name":"Stone Rain" },
  { "set":"6ed", "num":"210", "name":"Talruum Minotaur" },
  { "set":"6ed", "num":"211", "name":"Tremor" },
  { "set":"6ed", "num":"212", "name":"Vertigo" },
  { "set":"6ed", "num":"213", "name":"Viashino Warrior" },
  { "set":"6ed", "num":"214", "name":"Volcanic Dragon" },
  { "set":"6ed", "num":"215", "name":"Volcanic Geyser" },
  { "set":"6ed", "num":"216", "name":"Wall of Fire" },
  { "set":"6ed", "num":"217", "name":"Birds of Paradise" },
  { "set":"6ed", "num":"218", "name":"Call of the Wild" },
  { "set":"6ed", "num":"219", "name":"Cat Warriors" },
  { "set":"6ed", "num":"220", "name":"Creeping Mold" },
  { "set":"6ed", "num":"221", "name":"Dense Foliage" },
  { "set":"6ed", "num":"222", "name":"Early Harvest" },
  { "set":"6ed", "num":"223", "name":"Elder Druid" },
  { "set":"6ed", "num":"224", "name":"Elven Cache" },
  { "set":"6ed", "num":"225", "name":"Elven Riders" },
  { "set":"6ed", "num":"226", "name":"Elvish Archers" },
  { "set":"6ed", "num":"227", "name":"Fallow Earth" },
  { "set":"6ed", "num":"228", "name":"Familiar Ground" },
  { "set":"6ed", "num":"229", "name":"Femeref Archers" },
  { "set":"6ed", "num":"230", "name":"Fog" },
  { "set":"6ed", "num":"231", "name":"Fyndhorn Brownie" },
  { "set":"6ed", "num":"232", "name":"Fyndhorn Elder" },
  { "set":"6ed", "num":"233", "name":"Giant Growth" },
  { "set":"6ed", "num":"234", "name":"Giant Spider" },
  { "set":"6ed", "num":"235", "name":"Gorilla Chieftain" },
  { "set":"6ed", "num":"236", "name":"Grizzly Bears" },
  { "set":"6ed", "num":"237", "name":"Hurricane" },
  { "set":"6ed", "num":"238", "name":"Living Lands" },
  { "set":"6ed", "num":"239", "name":"Llanowar Elves" },
  { "set":"6ed", "num":"240", "name":"Lure" },
  { "set":"6ed", "num":"241", "name":"Maro" },
  { "set":"6ed", "num":"242", "name":"Nature's Resurgence" },
  { "set":"6ed", "num":"243", "name":"Panther Warriors" },
  { "set":"6ed", "num":"244", "name":"Pradesh Gypsies" },
  { "set":"6ed", "num":"245", "name":"Radjan Spirit" },
  { "set":"6ed", "num":"246", "name":"Rampant Growth" },
  { "set":"6ed", "num":"247", "name":"Redwood Treefolk" },
  { "set":"6ed", "num":"248", "name":"Regeneration" },
  { "set":"6ed", "num":"249", "name":"River Boa" },
  { "set":"6ed", "num":"250", "name":"Rowen" },
  { "set":"6ed", "num":"251", "name":"Scaled Wurm" },
  { "set":"6ed", "num":"252", "name":"Shanodin Dryads" },
  { "set":"6ed", "num":"253", "name":"Stalking Tiger" },
  { "set":"6ed", "num":"254", "name":"Stream of Life" },
  { "set":"6ed", "num":"255", "name":"Summer Bloom" },
  { "set":"6ed", "num":"256", "name":"Thicket Basilisk" },
  { "set":"6ed", "num":"257", "name":"Trained Armodon" },
  { "set":"6ed", "num":"258", "name":"Tranquil Grove" },
  { "set":"6ed", "num":"259", "name":"Tranquility" },
  { "set":"6ed", "num":"260", "name":"Uktabi Orangutan" },
  { "set":"6ed", "num":"261", "name":"Uktabi Wildcats" },
  { "set":"6ed", "num":"262", "name":"Unseen Walker" },
  { "set":"6ed", "num":"263", "name":"Untamed Wilds" },
  { "set":"6ed", "num":"264", "name":"Verduran Enchantress" },
  { "set":"6ed", "num":"265", "name":"Vitalize" },
  { "set":"6ed", "num":"266", "name":"Waiting in the Weeds" },
  { "set":"6ed", "num":"267", "name":"Warthog" },
  { "set":"6ed", "num":"268", "name":"Wild Growth" },
  { "set":"6ed", "num":"269", "name":"Worldly Tutor" },
  { "set":"6ed", "num":"270", "name":"Wyluli Wolf" },
  { "set":"6ed", "num":"271", "name":"Aladdin's Ring" },
  { "set":"6ed", "num":"272", "name":"Amber Prison" },
  { "set":"6ed", "num":"273", "name":"Ankh of Mishra" },
  { "set":"6ed", "num":"274", "name":"Ashnod's Altar" },
  { "set":"6ed", "num":"275", "name":"Bottle of Suleiman" },
  { "set":"6ed", "num":"276", "name":"Charcoal Diamond" },
  { "set":"6ed", "num":"277", "name":"Crystal Rod" },
  { "set":"6ed", "num":"278", "name":"Cursed Totem" },
  { "set":"6ed", "num":"279", "name":"Dancing Scimitar" },
  { "set":"6ed", "num":"280", "name":"Dingus Egg" },
  { "set":"6ed", "num":"281", "name":"Disrupting Scepter" },
  { "set":"6ed", "num":"282", "name":"Dragon Engine" },
  { "set":"6ed", "num":"283", "name":"Dragon Mask" },
  { "set":"6ed", "num":"284", "name":"Fire Diamond" },
  { "set":"6ed", "num":"285", "name":"Flying Carpet" },
  { "set":"6ed", "num":"286", "name":"Fountain of Youth" },
  { "set":"6ed", "num":"287", "name":"Glasses of Urza" },
  { "set":"6ed", "num":"288", "name":"Grinning Totem" },
  { "set":"6ed", "num":"289", "name":"The Hive" },
  { "set":"6ed", "num":"290", "name":"Howling Mine" },
  { "set":"6ed", "num":"291", "name":"Iron Star" },
  { "set":"6ed", "num":"292", "name":"Ivory Cup" },
  { "set":"6ed", "num":"293", "name":"Jade Monolith" },
  { "set":"6ed", "num":"294", "name":"Jalum Tome" },
  { "set":"6ed", "num":"295", "name":"Jayemdae Tome" },
  { "set":"6ed", "num":"296", "name":"Lead Golem" },
  { "set":"6ed", "num":"297", "name":"Mana Prism" },
  { "set":"6ed", "num":"298", "name":"Marble Diamond" },
  { "set":"6ed", "num":"299", "name":"Meekstone" },
  { "set":"6ed", "num":"300", "name":"Millstone" },
  { "set":"6ed", "num":"301", "name":"Moss Diamond" },
  { "set":"6ed", "num":"302", "name":"Mystic Compass" },
  { "set":"6ed", "num":"303", "name":"Obsianus Golem" },
  { "set":"6ed", "num":"304", "name":"Ornithopter" },
  { "set":"6ed", "num":"305", "name":"Patagia Golem" },
  { "set":"6ed", "num":"306", "name":"Pentagram of the Ages" },
  { "set":"6ed", "num":"307", "name":"Phyrexian Vault" },
  { "set":"6ed", "num":"308", "name":"Primal Clay" },
  { "set":"6ed", "num":"309", "name":"Rod of Ruin" },
  { "set":"6ed", "num":"310", "name":"Skull Catapult" },
  { "set":"6ed", "num":"311", "name":"Sky Diamond" },
  { "set":"6ed", "num":"312", "name":"Snake Basket" },
  { "set":"6ed", "num":"313", "name":"Soul Net" },
  { "set":"6ed", "num":"314", "name":"Storm Cauldron" },
  { "set":"6ed", "num":"315", "name":"Teferi's Puzzle Box" },
  { "set":"6ed", "num":"316", "name":"Throne of Bone" },
  { "set":"6ed", "num":"317", "name":"Wand of Denial" },
  { "set":"6ed", "num":"318", "name":"Wooden Sphere" },
  { "set":"6ed", "num":"319", "name":"Adarkar Wastes" },
  { "set":"6ed", "num":"320", "name":"Brushland" },
  { "set":"6ed", "num":"321", "name":"City of Brass" },
  { "set":"6ed", "num":"322", "name":"Crystal Vein" },
  { "set":"6ed", "num":"323", "name":"Dwarven Ruins" },
  { "set":"6ed", "num":"324", "name":"Ebon Stronghold" },
  { "set":"6ed", "num":"325", "name":"Havenwood Battleground" },
  { "set":"6ed", "num":"326", "name":"Karplusan Forest" },
  { "set":"6ed", "num":"327", "name":"Ruins of Trokair" },
  { "set":"6ed", "num":"328", "name":"Sulfurous Springs" },
  { "set":"6ed", "num":"329", "name":"Svyelunite Temple" },
  { "set":"6ed", "num":"330", "name":"Underground River" },
  { "set":"6ed", "num":"331", "name":"Plains" },
  { "set":"6ed", "num":"332", "name":"Plains" },
  { "set":"6ed", "num":"333", "name":"Plains" },
  { "set":"6ed", "num":"334", "name":"Plains" },
  { "set":"6ed", "num":"335", "name":"Island" },
  { "set":"6ed", "num":"336", "name":"Island" },
  { "set":"6ed", "num":"337", "name":"Island" },
  { "set":"6ed", "num":"338", "name":"Island" },
  { "set":"6ed", "num":"339", "name":"Swamp" },
  { "set":"6ed", "num":"340", "name":"Swamp" },
  { "set":"6ed", "num":"341", "name":"Swamp" },
  { "set":"6ed", "num":"342", "name":"Swamp" },
  { "set":"6ed", "num":"343", "name":"Mountain" },
  { "set":"6ed", "num":"344", "name":"Mountain" },
  { "set":"6ed", "num":"345", "name":"Mountain" },
  { "set":"6ed", "num":"346", "name":"Mountain" },
  { "set":"6ed", "num":"347", "name":"Forest" },
  { "set":"6ed", "num":"348", "name":"Forest" },
  { "set":"6ed", "num":"349", "name":"Forest" },
  { "set":"6ed", "num":"350", "name":"Forest" }
]
