﻿[
    { "set": "apc", "name": "Cetavolver" },
    { "set": "7ed", "name": "Uktabi Wildcats" },
    { "set": "7ed", "name": "Adarkar Wastes" },
    { "set": "7ed", "name": "Brushland" },
    { "set": "7ed", "name": "City of Brass" },
    { "set": "7ed", "name": "Karplusan Forest" },
    { "set": "7ed", "name": "Sulfurous Springs" },
    { "set": "7ed", "name": "Underground River" },

    { "set": "ody", "name": "Earth Rift" },

    { "set": "mmq", "name": "Snuff Out", "overrides": { "front|textbox_fontsize": "60" } },

    { "set": "5ed", "name": "Pyroblast", "overrides": { "frame": "1997", "no_expansion": "true", "front|art_image": "q:/__MPC/__art/Pyroblast;Kaja Foglio.jpg" } },
    { "set": "4ed", "name": "Red Elemental Blast", "overrides": { "frame": "1997", "no_expansion": "true" } },

    { "set": "leg", "name": "Wall of Caltrops", "overrides": { "frame": "1997" } }
]
