<?xml version="1.0" encoding="UTF-8" standalone="no"?>
<!-- Generated by IcoMoon.io -->

<svg
   version="1.1"
   width="19.44059"
   height="19.425943"
   viewBox="0 0 19.44059 19.425943"
   id="svg6"
   sodipodi:docname="mirran.svg"
   inkscape:version="1.2-beta (1b65182ce9, 2022-04-05)"
   xmlns:inkscape="http://www.inkscape.org/namespaces/inkscape"
   xmlns:sodipodi="http://sodipodi.sourceforge.net/DTD/sodipodi-0.dtd"
   xmlns="http://www.w3.org/2000/svg"
   xmlns:svg="http://www.w3.org/2000/svg"
   xmlns:rdf="http://www.w3.org/1999/02/22-rdf-syntax-ns#"
   xmlns:cc="http://creativecommons.org/ns#"
   xmlns:dc="http://purl.org/dc/elements/1.1/">
  <sodipodi:namedview
     id="namedview744"
     pagecolor="#ffffff"
     bordercolor="#000000"
     borderopacity="0.25"
     inkscape:pageshadow="2"
     inkscape:pageopacity="0.0"
     inkscape:pagecheckerboard="0"
     inkscape:deskcolor="#d1d1d1"
     showgrid="false"
     inkscape:zoom="9.7130262"
     inkscape:cx="9.6777254"
     inkscape:cy="9.6777254"
     inkscape:window-width="1920"
     inkscape:window-height="1147"
     inkscape:window-x="1912"
     inkscape:window-y="-8"
     inkscape:window-maximized="1"
     inkscape:current-layer="svg6" />
  <defs
     id="defs10" />
  <title
     id="title2">simic</title>
  <path
     d="m 17.265971,3.580505 c 1.359521,1.6724213 2.174619,3.8043515 2.174619,6.1251426 0,5.3647954 -4.355528,9.7202954 -9.720295,9.7202954 C 4.3555268,19.425943 0,15.070443 0,9.7056476 0,7.3848565 0.8150976,5.2529263 2.1746188,3.580505 l 4.5713418,5.7914706 2.24e-5,-9e-5 c -0.012201,0.109582 -0.018461,0.220933 -0.018461,0.333755 0,1.6517574 1.341009,2.9927654 2.992767,2.9927654 1.651757,0 2.992765,-1.341008 2.992765,-2.9927654 0,-0.112822 -0.0062,-0.224173 -0.01846,-0.333755 l 2.3e-5,9e-5 z M 7.901156,7.3297518 v -2.24e-5 C 7.5180423,7.6236806 7.2079462,8.0080476 7.0029123,8.4508666 l 2.24e-5,-8.9e-5 -3.9191549,-5.844747 C 3.8494635,1.8898426 4.7310451,1.2959232 5.697216,0.8556361 Z m 5.842218,-6.4741157 c 0.966225,0.4403687 1.847916,1.0343699 2.613436,1.7503945 l -3.91916,5.84475 2.3e-5,8.9e-5 c -0.20498,-0.442791 -0.515076,-0.827185 -0.898244,-1.121137 v 2.24e-5 z M 9.182568,0 v 6.7611521 c -0.183634,0.03338 -0.361469,0.083527 -0.531682,0.1487867 l 9e-5,-4.48e-5 L 7.0492032,0.3576138 C 7.73302,0.1623541 8.447058,0.0401944 9.182576,9.9e-6 Z m 1.075454,0 c 0.736007,0.040184 1.450344,0.1623988 2.133372,0.357604 l -1.601772,6.5522804 9e-5,4.4e-5 C 10.619445,6.8446403 10.441664,6.7945205 10.258029,6.7611425 Z"
     id="path2"
     style="clip-rule:evenodd;fill-rule:evenodd;stroke-width:0.0272253;stroke-linejoin:round;stroke-miterlimit:2" />
  <metadata
     id="metadata827">
    <rdf:RDF>
      <cc:Work
         rdf:about="">
        <dc:title>simic</dc:title>
      </cc:Work>
    </rdf:RDF>
  </metadata>
</svg>
