<?xml version="1.0" encoding="UTF-8" standalone="no"?>
<svg
   version="1.1"
   width="565.11566"
   height="294.95743"
   id="svg764"
   sodipodi:docname="MRD.svg"
   inkscape:version="1.2-beta (1b65182ce9, 2022-04-05)"
   xmlns:inkscape="http://www.inkscape.org/namespaces/inkscape"
   xmlns:sodipodi="http://sodipodi.sourceforge.net/DTD/sodipodi-0.dtd"
   xmlns="http://www.w3.org/2000/svg"
   xmlns:svg="http://www.w3.org/2000/svg">
  <defs
     id="defs768" />
  <sodipodi:namedview
     id="namedview766"
     pagecolor="#ffffff"
     bordercolor="#000000"
     borderopacity="0.25"
     inkscape:pageshadow="2"
     inkscape:pageopacity="0.0"
     inkscape:pagecheckerboard="0"
     inkscape:deskcolor="#d1d1d1"
     showgrid="false"
     inkscape:zoom="0.71577837"
     inkscape:cx="283.60734"
     inkscape:cy="148.09053"
     inkscape:window-width="1920"
     inkscape:window-height="1147"
     inkscape:window-x="1912"
     inkscape:window-y="-8"
     inkscape:window-maximized="1"
     inkscape:current-layer="svg764" />
  <path
     d="m 415.85166,107.75358 -42.28797,119.74614 c 0,0 7.98507,7.98507 21.53277,8.76264 L 405.494,206.74452 c 0,0 100.54608,8.76264 118.92869,23.12779 0,0 -12.7801,26.36768 -29.55772,-5.5726 0,0 -26.3278,36.72534 0.81745,58.25811 27.14525,21.57265 63.04317,11.17511 69.43322,-2.37259 0,0 -26.36767,-1.59502 -32.74776,-15.19257 -6.35017,-13.5477 0.81745,-19.15021 6.38009,-20.7552 5.61247,-1.59502 24.77265,-4.74518 24.77265,-20.7552 0,-15.92029 -34.35274,-43.06554 -135.6764,-81.3859 l 9.58009,-25.54026 c 0,0 -8.02495,-8.80252 -21.57265,-8.80252 m -136.48388,13.86671 c 0,0 51.86806,7.43678 76.63075,13.81686 l -32.70788,-31.65118 c 0,0 -19.42934,10.35766 -43.92287,17.83432 m -15.97014,2.10343 C 164.4067,115.73865 107.75358,59.07556 107.75358,59.07556 c 51.86806,110.12618 155.64406,64.64816 155.64406,64.64816 M 0,0 c 0,0 37.502911,27.14525 127.69133,29.55772 l -13.55767,15.15269 c 0,0 91.00587,76.63075 210.71213,35.12035 l 70.25067,52.68551 -22.35022,62.23569 c 0,0 -90.96599,4.82494 -192.3694,-43.89296 C 79.013311,102.18098 25.550229,49.49547 0,0"
     id="path762" />
</svg>
