<?xml version="1.0" encoding="UTF-8" standalone="no"?>
<svg
   version="1.1"
   id="Layer_1"
   width="280.36401"
   height="250.243"
   sodipodi:docname="OGW.svg"
   inkscape:version="1.2-beta (1b65182ce9, 2022-04-05)"
   xmlns:inkscape="http://www.inkscape.org/namespaces/inkscape"
   xmlns:sodipodi="http://sodipodi.sourceforge.net/DTD/sodipodi-0.dtd"
   xmlns="http://www.w3.org/2000/svg"
   xmlns:svg="http://www.w3.org/2000/svg">
  <defs
     id="defs829" />
  <sodipodi:namedview
     id="namedview827"
     pagecolor="#ffffff"
     bordercolor="#000000"
     borderopacity="0.25"
     inkscape:pageshadow="2"
     inkscape:pageopacity="0.0"
     inkscape:pagecheckerboard="0"
     inkscape:deskcolor="#d1d1d1"
     showgrid="false"
     inkscape:zoom="0.78666667"
     inkscape:cx="139.83051"
     inkscape:cy="113.13559"
     inkscape:window-width="1920"
     inkscape:window-height="1147"
     inkscape:window-x="1912"
     inkscape:window-y="-8"
     inkscape:window-maximized="1"
     inkscape:current-layer="Layer_1" />
  <polygon
     points="268.634,236.744 214.649,286.658 304.193,283.047 "
     id="polygon818"
     transform="translate(-23.829,-36.417)" />
  <polygon
     points="59.385,236.765 23.829,283.02 113.423,286.66 "
     id="polygon820"
     transform="translate(-23.829,-36.417)" />
  <polygon
     points="271.69,182.753 224.971,151.225 184.641,36.435 184.667,265.032 "
     id="polygon822"
     transform="translate(-23.829,-36.417)" />
  <polygon
     points="143.391,265.072 143.4,36.417 103.092,151.221 56.378,182.738 "
     id="polygon824"
     transform="translate(-23.829,-36.417)" />
</svg>
