<?xml version="1.0" encoding="UTF-8" standalone="no"?>
<svg
   version="1.1"
   width="457.04129"
   height="346.73148"
   id="svg841"
   sodipodi:docname="ONS.svg"
   inkscape:version="1.2-beta (1b65182ce9, 2022-04-05)"
   xmlns:inkscape="http://www.inkscape.org/namespaces/inkscape"
   xmlns:sodipodi="http://sodipodi.sourceforge.net/DTD/sodipodi-0.dtd"
   xmlns="http://www.w3.org/2000/svg"
   xmlns:svg="http://www.w3.org/2000/svg">
  <defs
     id="defs845" />
  <sodipodi:namedview
     id="namedview843"
     pagecolor="#ffffff"
     bordercolor="#000000"
     borderopacity="0.25"
     inkscape:pageshadow="2"
     inkscape:pageopacity="0.0"
     inkscape:pagecheckerboard="0"
     inkscape:deskcolor="#d1d1d1"
     showgrid="false"
     inkscape:zoom="0.54213132"
     inkscape:cx="228.72687"
     inkscape:cy="149.41029"
     inkscape:window-width="1920"
     inkscape:window-height="1147"
     inkscape:window-x="1912"
     inkscape:window-y="-8"
     inkscape:window-maximized="1"
     inkscape:current-layer="svg841" />
  <path
     d="m 230.66459,233.55946 c 24.36697,0 38.68896,-11.47066 38.68896,-11.47066 l 32.98629,124.64268 h 64.44896 l -41.52942,-31.5062 -15.76943,-144.75441 24.35609,-35.7941 51.56353,210.60727 h 71.63172 L 412.66053,318.07661 378.27034,20.0682 299.45585,95.99869 272.24842,0 239.29479,98.83915 H 217.79003 L 184.8364,0 157.62897,95.99869 78.814477,20.0682 44.424287,318.07661 0,345.28404 h 71.631717 l 51.563523,-210.60727 24.39963,35.7941 -15.76943,144.75441 -41.572953,31.5062 H 154.74498 L 187.68773,222.0888 c 0,0 14.32199,11.47066 38.68897,11.47066 z"
     id="path839" />
</svg>
