<?xml version="1.0" encoding="UTF-8" standalone="no"?>
<svg
   version="1.1"
   width="535.03369"
   height="629.0741"
   id="svg551"
   sodipodi:docname="UDS.svg"
   inkscape:version="1.2-beta (1b65182ce9, 2022-04-05)"
   xmlns:inkscape="http://www.inkscape.org/namespaces/inkscape"
   xmlns:sodipodi="http://sodipodi.sourceforge.net/DTD/sodipodi-0.dtd"
   xmlns="http://www.w3.org/2000/svg"
   xmlns:svg="http://www.w3.org/2000/svg">
  <defs
     id="defs555" />
  <sodipodi:namedview
     id="namedview553"
     pagecolor="#ffffff"
     bordercolor="#000000"
     borderopacity="0.25"
     inkscape:pageshadow="2"
     inkscape:pageopacity="0.0"
     inkscape:pagecheckerboard="0"
     inkscape:deskcolor="#d1d1d1"
     showgrid="false"
     inkscape:zoom="0.34727377"
     inkscape:cx="267.80024"
     inkscape:cy="313.8734"
     inkscape:window-width="1920"
     inkscape:window-height="1147"
     inkscape:window-x="1912"
     inkscape:window-y="-8"
     inkscape:window-maximized="1"
     inkscape:current-layer="svg551" />
  <path
     d="M 154.68013,560.80808 C 127.9798,558.77104 96.346802,543.97307 96.346802,543.97307 L 194.12458,363.51852 Z M 346.49831,242.65993 V 58.33333 C 367.67677,52.86195 378.9899,44.78115 378.9899,34.98317 378.9899,16.83502 353.21549,0 270.60606,0 188.01347,0 157.50842,16.83502 157.50842,34.98317 c 0,9.79798 12.55892,17.94612 35.23569,23.40067 V 242.65993 L 0,570.6734 c 0,0 69.713802,58.40068 274.76431,58.40068 195.75757,0 260.26936,-54.3266 260.26936,-54.3266 z"
     id="path549" />
</svg>
