<?xml version="1.0" encoding="UTF-8" standalone="no"?>
<svg
   version="1.1"
   width="313.272"
   height="352.82422"
   viewBox="0 0 313.27199 352.82422"
   id="svg673"
   sodipodi:docname="ZNR.svg"
   inkscape:version="1.2-beta (1b65182ce9, 2022-04-05)"
   xmlns:inkscape="http://www.inkscape.org/namespaces/inkscape"
   xmlns:sodipodi="http://sodipodi.sourceforge.net/DTD/sodipodi-0.dtd"
   xmlns="http://www.w3.org/2000/svg"
   xmlns:svg="http://www.w3.org/2000/svg">
  <defs
     id="defs677" />
  <sodipodi:namedview
     id="namedview675"
     pagecolor="#ffffff"
     bordercolor="#000000"
     borderopacity="0.25"
     inkscape:pageshadow="2"
     inkscape:pageopacity="0.0"
     inkscape:pagecheckerboard="0"
     inkscape:deskcolor="#d1d1d1"
     showgrid="false"
     inkscape:zoom="0.58559184"
     inkscape:cx="157.10601"
     inkscape:cy="179.30578"
     inkscape:window-width="1920"
     inkscape:window-height="1147"
     inkscape:window-x="1912"
     inkscape:window-y="-8"
     inkscape:window-maximized="1"
     inkscape:current-layer="svg673" />
  <path
     d="M 232.848,0 309.877,67.890625 270.221,112.81836 193.372,44.25 Z M 80.424,0 119.90047,44.25 43.051,112.81836 3.395,67.890625 Z m 76.212,31.90625 132.79,118.25976 -84.084,10.64844 -48.706,-43.87695 -48.706,43.87695 -84.084,-10.64844 z m 133.29,125.61914 -133.29,195.29883 -133.29,-195.29883 83.002,9.68945 50.288,73.38867 50.288,-73.38867 z m -14.752,49.76562 38.098,35.2168 -68.364,73.94141 -27.59,-25.11329 z m -237.076,0 57.856,84.04492 -27.59,25.11329 L 0,242.50781 Z"
     id="path671" />
</svg>
