﻿{
  "Meta": { "DPI": 1200, "Margin": 144 },
  "Parent": "../parent_1200.json",
  "Dimensions": { "X": 0, "Y": 0, "Width": 3288, "Height": 4488 },
  "Vars": {
    "Cost": "${CardFace.FieldColors('mana_cost')}",
    "OtherColors": "${CardFace.OtherSide.FieldColors('colors')}",
    "OtherCost": "${CardFace.OtherSide.FieldColors('mana_cost')}"
  },
  "FrameLayers": [
    { "Id": "background-top",    "Type": "frame", "Selector": [ { "Source": "../_common/background/standard/${Vars['Cost']}.png",          "Mask": "../_common/masks/split/aftermath/mask-top.png" } ] },
    { "Id": "background-bottom", "Type": "frame", "Selector": [ { "Source": "../_common/background/standard/${Vars['OtherCost']}.png",     "Mask": "../_common/masks/split/aftermath/mask-bottom.png" } ] },
    { "Id": "art-top",           "Type": "art",   "Selector": [ { "Source": "CardFace",           "Position": { "Box": { "X": 352,  "Y": 605,  "Width": 2584, "Height": 961 } } } ] },
    { "Id": "art-bottom",        "Type": "art",   "Selector": [ { "Source": "CardFace.OtherSide", "Position": { "Box": { "X": 1786, "Y": 2511, "Width": 885,  "Height": 1497 }, "Rotation": 90 } } ] },
    { "Id": "shadow",            "Type": "frame", "Selector": [ { "Source": "../_common/shadows/shadow-split-aftermath.png" } ] },
    { "Id": "border",            "Type": "frame", "Selector": [ { "Source": "../_common/border/${CardFace.Field('border_color')}-split-aftermath.png" } ] },
    { "Id": "pinlines-top",      "Type": "frame", "Selector": [ { "Source": "../_common/pinlines/aftermath/${Vars['Cost']}.png",           "Mask": "../_common/masks/split/aftermath/mask-top.png" } ] },
    { "Id": "pinlines-bottom",   "Type": "frame", "Selector": [ { "Source": "../_common/pinlines/aftermath/${Vars['OtherCost']}.png",      "Mask": "../_common/masks/split/aftermath/mask-bottom.png" } ] },
    { "Id": "textbox-top",       "Type": "frame", "Selector": [ { "Source": "../_common/textbox/split/aftermath/${Vars['Cost']}.png",      "Mask": "../_common/masks/split/aftermath/mask-top.png" } ] },
    { "Id": "textbox-bottom",    "Type": "frame", "Selector": [ { "Source": "../_common/textbox/split/aftermath/${Vars['OtherCost']}.png", "Mask": "../_common/masks/split/aftermath/mask-bottom.png" } ] },
    { "Id": "plates-top",        "Type": "frame", "Selector": [ { "Source": "../_common/plates/aftermath/${Vars['Cost']}.png",             "Mask": "../_common/masks/split/aftermath/mask-top.png" } ] },
    { "Id": "plates-bottom",     "Type": "frame", "Selector": [ { "Source": "../_common/plates/aftermath/${Vars['OtherCost']}.png",        "Mask": "../_common/masks/split/aftermath/mask-bottom.png" } ] },
    { "Id": "text",              "Type": "text" }
  ],
  "Spans": [
    {
      "Id": "Name / ManaCost 'top'",
      "Position": { "Box": { "X": 352, "Y": 362, "Width": 2584, "Height": 200 } },
      "Elements": [
        { "Text": { "Value": "${CardFace.Field('mana_cost')}", "Adjust": -0.06,                                         "Font": { "RegularFont": "Beleren2016NL",                   "Size": 182 }, "Shadow": { "X": -4, "Y": 11 } }, "Align": { "H": "right", "V": "middle" } },
        { "Text": { "Value": "${CardFace.Field('name')}",      "Adjust": -0.06, "Margins": { "Left": 30, "Right": 20 }, "Font": { "RegularFont": "Beleren2016NL", "Color": "black", "Size": 160 }                                 }, "Align": { "H": "left",  "V": "middle" } }
      ]
    },
    {
      "Id": "Name / ManaCost 'bottom'",
      "Position": { "Box": { "X": 2714, "Y": 2511, "Width": 200, "Height": 1497 }, "Rotation": 90 },
      "Elements": [
        { "Text": { "Value": "${CardFace.OtherSide.Field('mana_cost')}", "Adjust": -0.06,                                         "Font": { "RegularFont": "Beleren2016NL",                   "Size": 182 }, "Shadow": { "X": -4, "Y": 11 } }, "Align": { "H": "right", "V": "middle" } },
        { "Text": { "Value": "${CardFace.OtherSide.Field('name')}",      "Adjust": -0.06, "Margins": { "Left": 30, "Right": 20 }, "Font": { "RegularFont": "Beleren2016NL", "Color": "black", "Size": 160 }                                 }, "Align": { "H": "left",  "V": "middle" } }
      ]
    },
    {
      "Id": "TypeLine / SetSymbol 'top",
      "Position": { "Box": { "X": 352, "Y": 1608, "Width": 2584, "Height": 200 } },
      "Elements": [
        { "Img":  { "Path": "../../../sets/${CardFace.Field('set_symbol') ?? CardFace.Field('set')}/${CardFace.Field('rarity')}.svg", "Height": 170, "Margins": { "Right": 10 } }, "Condition": "!CardFace.FieldTrue('no_expansion')",  "Align": { "H": "right", "V": "center" } },
        { "Text": { "Value": "${CardFace.Field('type_line')}", "Adjust": -0.06, "Margins": { "Left": 30, "Right": 20 }, "Font": { "RegularFont": "Beleren2016NL", "Color": "black", "Size": 135 } }, "Align": { "H": "left", "V": "middle" } }
      ]
    },
    {
      "Id": "TypeLine 'bottom",
      "Position": { "Box": { "X": 1543, "Y": 2511, "Width": 200, "Height": 1497 }, "Rotation": 90 },
      "Elements": [
        { "Text": { "Value": "${CardFace.OtherSide.Field('type_line')}", "Adjust": -0.06, "Margins": { "Left": 30, "Right": 20 }, "Font": { "RegularFont": "Beleren2016NL", "Color": "black", "Size": 135 } }, "Align": { "H": "left", "V": "middle" } }
      ]
    }
  ],
  "TextBoxes": [
    {
      "Id": "TextBox 'top'",
      "Source": "CardFace.Text",
      "Position": { "Box": { "X": 368, "Y": 1867, "Width": 2552, "Height": 519 } },
      "FontParameters": { "RegularFont": "Plantin MT Pro", "ItalicFont": "Plantin MT Pro|Italic", "Size": 140 },
      "SectionParameters": { "LineGapRatio": -0.3, "ParagraphGapRatio": 0.15, "ParagraphMargins": { "Left": 24, "Right": 24 } }
    },
    {
      "Id": "TextBox 'bottom'",
      "Source": "CardFace.OtherSide.Text",
      "Position": { "Box": { "X": 368, "Y": 2527, "Width": 1117, "Height": 1465 }, "Rotation": 90 },
      "FontParameters": { "RegularFont": "Plantin MT Pro", "ItalicFont": "Plantin MT Pro|Italic", "Size": 140 },
      "SectionParameters": { "LineGapRatio": -0.3, "ParagraphGapRatio": 0.15, "ParagraphMargins": { "Left": 24, "Right": 24 } }
    }
  ]
}